
0  0  ?  ?  X  0  X  X  0  X  X 	Freq

0  0  0  0  0  0  0  0  0  0  0 	289
0  0  0  0  0  0  0  0  0  0  0 	339
0  0  0  0  0  0  0  0  0  0  1 	245
0  0  0  0  0  0  0  0  0  1  0 	686
0  0  0  0  0  0  1  0  0  0  0 	271
0  0  0  0  0  0  0  1  0  1  0 	426
0  0  0  0  0  0  0  1  0  1  0 	397
0  0  0  0  0  0  1  0  0  1  0 	205
0  0  0  0  0  0  1  0  0  0  1 	487
0  0  0  0  1  0  0  0  0  0  1 	338
0  0  0  0  1  0  0  0  0  0  1 	241
0  0  1  0  0  0  0  0  0  1  0 	428
0  0  1  0  0  0  0  0  0  1  0 	261
0  0  0  0  0  0  0  0  0  1  1 	377
0  0  0  0  0  0  1  0  0  1  1 	260
0  0  0  0  0  0  1  1  0  0  0 	260
0  0  0  0  0  0  0  1  0  1  1 	340
0  0  0  0  0  0  1  1  0  0  1 	342
0  0  0  0  0  0  1  1  0  1  1 	377
0  0  0  0  0  0  1  1  0  1  1 	234
0  0  0  0  1  0  1  0  0  1  1 	242
0  0  1  0  0  0  0  1  0  1  1 	382
0  0  0  0  1  0  1  1  0  1  1 	224
0  0  0  0  1  0  1  1  0  1  1 	445
0  0  0  1  1  0  1  0  0  1  1 	292
0  0  0  1  1  1  0  1  0  1  1 	346
0  0  0  1  1  0  1  1  0  1  0 	330
1  0  0  0  1  0  1  1  0  0  1 	295
0  0  0  0  1  0  1  1  1  1  1 	281
0  0  0  0  1  0  1  1  1  1  1 	303

